program/02_sqrt/sim/transcript
# do ../modelsim_script.tcl
# -vlog01compat
# +define+SIMULATION
# +incdir+../../../src
# +incdir+../../../testbench
# ../../../src/*.v
# ../../../testbench/*.v
# Model Technology ModelSim - Intel FPGA Edition vlog 10.5b Compiler 2016.10 Oct  5 2016
# Start time: 21:23:28 on Sep 30,2018
# vlog -reportprogress 300 -vlog01compat "+define+SIMULATION" "+incdir+../../../src" "+incdir+../../../testbench" ../../../src/sm_cpu.v ../../../src/sm_hex_display.v ../../../src/sm_register.v ../../../src/sm_rom.v ../../../src/sm_top.v ../../../testbench/testbench.v 
# -- Compiling module sm_cpu
# -- Compiling module sm_control
# -- Compiling module sm_alu
# -- Compiling module sm_register_file
# -- Compiling module sm_hex_display
# -- Compiling module sm_hex_display_8
# -- Compiling module sm_register
# -- Compiling module sm_register_we
# -- Compiling module sm_rom
# -- Compiling module sm_top
# -- Compiling module sm_debouncer
# -- Compiling module sm_clk_divider
# -- Compiling module sm_testbench
# 
# Top level modules:
# 	sm_hex_display
# 	sm_hex_display_8
# 	sm_testbench
# End time: 21:23:28 on Sep 30,2018, Elapsed time: 0:00:00
# Errors: 0, Warnings: 0
# vsim work.sm_testbench 
# Start time: 21:23:28 on Sep 30,2018
# Loading work.sm_testbench
# Loading work.sm_top
# Loading work.sm_debouncer
# Loading work.sm_clk_divider
# Loading work.sm_register_we
# Loading work.sm_rom
# Loading work.sm_cpu
# Loading work.sm_register
# Loading work.sm_register_file
# Loading work.sm_alu
# Loading work.sm_control
#     0  pc =  x  pcaddr = xxxxxxxX  instr = 24040052   v0 = 0   addiu $4, $0, 82
#     1  pc =  x  pcaddr = xxxxxxxX  instr = 24040052   v0 = 0   addiu $4, $0, 82
#     2  pc =  0  pcaddr = 00000000  instr = 24040052   v0 = 0   addiu $4, $0, 82
#     3  pc =  0  pcaddr = 00000000  instr = 24040052   v0 = 0   addiu $4, $0, 82
#     4  pc =  0  pcaddr = 00000000  instr = 24040052   v0 = 0   addiu $4, $0, 82
#     5  pc =  1  pcaddr = 00000004  instr = 24020000   v0 = 0   addiu $2, $0, 0
#     6  pc =  2  pcaddr = 00000008  instr = 3c084000   v0 = 0   lui   $8, 16384
#     7  pc =  3  pcaddr = 0000000c  instr = 00004821   v0 = 0   addu  $9, $0, $0
#     8  pc =  4  pcaddr = 00000010  instr = 01285025   v0 = 0   or    $10, $9, $8
#     9  pc =  5  pcaddr = 00000014  instr = 00094842   v0 = 0   srl   $9, $0, $9
#    10  pc =  6  pcaddr = 00000018  instr = 008a582b   v0 = 0   sltu  $11, $4, $10
#    11  pc =  7  pcaddr = 0000001c  instr = 15600002   v0 = 0   bne   $11, $0, 3
#    12  pc = 10  pcaddr = 00000028  instr = 00084082   v0 = 0   srl   $8, $0, $8
#    13  pc = 11  pcaddr = 0000002c  instr = 1500fff8   v0 = 0   bne   $8, $0, -7
#    14  pc =  4  pcaddr = 00000010  instr = 01285025   v0 = 0   or    $10, $9, $8
#    15  pc =  5  pcaddr = 00000014  instr = 00094842   v0 = 0   srl   $9, $0, $9
#    16  pc =  6  pcaddr = 00000018  instr = 008a582b   v0 = 0   sltu  $11, $4, $10
#    17  pc =  7  pcaddr = 0000001c  instr = 15600002   v0 = 0   bne   $11, $0, 3
#    18  pc = 10  pcaddr = 00000028  instr = 00084082   v0 = 0   srl   $8, $0, $8
#    19  pc = 11  pcaddr = 0000002c  instr = 1500fff8   v0 = 0   bne   $8, $0, -7
#    20  pc =  4  pcaddr = 00000010  instr = 01285025   v0 = 0   or    $10, $9, $8
#    21  pc =  5  pcaddr = 00000014  instr = 00094842   v0 = 0   srl   $9, $0, $9
#    22  pc =  6  pcaddr = 00000018  instr = 008a582b   v0 = 0   sltu  $11, $4, $10
#    23  pc =  7  pcaddr = 0000001c  instr = 15600002   v0 = 0   bne   $11, $0, 3
#    24  pc = 10  pcaddr = 00000028  instr = 00084082   v0 = 0   srl   $8, $0, $8
#    25  pc = 11  pcaddr = 0000002c  instr = 1500fff8   v0 = 0   bne   $8, $0, -7
#    26  pc =  4  pcaddr = 00000010  instr = 01285025   v0 = 0   or    $10, $9, $8
#    27  pc =  5  pcaddr = 00000014  instr = 00094842   v0 = 0   srl   $9, $0, $9
#    28  pc =  6  pcaddr = 00000018  instr = 008a582b   v0 = 0   sltu  $11, $4, $10
#    29  pc =  7  pcaddr = 0000001c  instr = 15600002   v0 = 0   bne   $11, $0, 3
#    30  pc = 10  pcaddr = 00000028  instr = 00084082   v0 = 0   srl   $8, $0, $8
#    31  pc = 11  pcaddr = 0000002c  instr = 1500fff8   v0 = 0   bne   $8, $0, -7
#    32  pc =  4  pcaddr = 00000010  instr = 01285025   v0 = 0   or    $10, $9, $8
#    33  pc =  5  pcaddr = 00000014  instr = 00094842   v0 = 0   srl   $9, $0, $9
#    34  pc =  6  pcaddr = 00000018  instr = 008a582b   v0 = 0   sltu  $11, $4, $10
#    35  pc =  7  pcaddr = 0000001c  instr = 15600002   v0 = 0   bne   $11, $0, 3
#    36  pc = 10  pcaddr = 00000028  instr = 00084082   v0 = 0   srl   $8, $0, $8
#    37  pc = 11  pcaddr = 0000002c  instr = 1500fff8   v0 = 0   bne   $8, $0, -7
#    38  pc =  4  pcaddr = 00000010  instr = 01285025   v0 = 0   or    $10, $9, $8
#    39  pc =  5  pcaddr = 00000014  instr = 00094842   v0 = 0   srl   $9, $0, $9
#    40  pc =  6  pcaddr = 00000018  instr = 008a582b   v0 = 0   sltu  $11, $4, $10
#    41  pc =  7  pcaddr = 0000001c  instr = 15600002   v0 = 0   bne   $11, $0, 3
#    42  pc = 10  pcaddr = 00000028  instr = 00084082   v0 = 0   srl   $8, $0, $8
#    43  pc = 11  pcaddr = 0000002c  instr = 1500fff8   v0 = 0   bne   $8, $0, -7
#    44  pc =  4  pcaddr = 00000010  instr = 01285025   v0 = 0   or    $10, $9, $8
#    45  pc =  5  pcaddr = 00000014  instr = 00094842   v0 = 0   srl   $9, $0, $9
#    46  pc =  6  pcaddr = 00000018  instr = 008a582b   v0 = 0   sltu  $11, $4, $10
#    47  pc =  7  pcaddr = 0000001c  instr = 15600002   v0 = 0   bne   $11, $0, 3
#    48  pc = 10  pcaddr = 00000028  instr = 00084082   v0 = 0   srl   $8, $0, $8
#    49  pc = 11  pcaddr = 0000002c  instr = 1500fff8   v0 = 0   bne   $8, $0, -7
#    50  pc =  4  pcaddr = 00000010  instr = 01285025   v0 = 0   or    $10, $9, $8
#    51  pc =  5  pcaddr = 00000014  instr = 00094842   v0 = 0   srl   $9, $0, $9
#    52  pc =  6  pcaddr = 00000018  instr = 008a582b   v0 = 0   sltu  $11, $4, $10
#    53  pc =  7  pcaddr = 0000001c  instr = 15600002   v0 = 0   bne   $11, $0, 3
#    54  pc = 10  pcaddr = 00000028  instr = 00084082   v0 = 0   srl   $8, $0, $8
#    55  pc = 11  pcaddr = 0000002c  instr = 1500fff8   v0 = 0   bne   $8, $0, -7
#    56  pc =  4  pcaddr = 00000010  instr = 01285025   v0 = 0   or    $10, $9, $8
#    57  pc =  5  pcaddr = 00000014  instr = 00094842   v0 = 0   srl   $9, $0, $9
#    58  pc =  6  pcaddr = 00000018  instr = 008a582b   v0 = 0   sltu  $11, $4, $10
#    59  pc =  7  pcaddr = 0000001c  instr = 15600002   v0 = 0   bne   $11, $0, 3
#    60  pc = 10  pcaddr = 00000028  instr = 00084082   v0 = 0   srl   $8, $0, $8
#    61  pc = 11  pcaddr = 0000002c  instr = 1500fff8   v0 = 0   bne   $8, $0, -7
#    62  pc =  4  pcaddr = 00000010  instr = 01285025   v0 = 0   or    $10, $9, $8
#    63  pc =  5  pcaddr = 00000014  instr = 00094842   v0 = 0   srl   $9, $0, $9
#    64  pc =  6  pcaddr = 00000018  instr = 008a582b   v0 = 0   sltu  $11, $4, $10
#    65  pc =  7  pcaddr = 0000001c  instr = 15600002   v0 = 0   bne   $11, $0, 3
#    66  pc = 10  pcaddr = 00000028  instr = 00084082   v0 = 0   srl   $8, $0, $8
#    67  pc = 11  pcaddr = 0000002c  instr = 1500fff8   v0 = 0   bne   $8, $0, -7
#    68  pc =  4  pcaddr = 00000010  instr = 01285025   v0 = 0   or    $10, $9, $8
#    69  pc =  5  pcaddr = 00000014  instr = 00094842   v0 = 0   srl   $9, $0, $9
#    70  pc =  6  pcaddr = 00000018  instr = 008a582b   v0 = 0   sltu  $11, $4, $10
#    71  pc =  7  pcaddr = 0000001c  instr = 15600002   v0 = 0   bne   $11, $0, 3
#    72  pc = 10  pcaddr = 00000028  instr = 00084082   v0 = 0   srl   $8, $0, $8
#    73  pc = 11  pcaddr = 0000002c  instr = 1500fff8   v0 = 0   bne   $8, $0, -7
#    74  pc =  4  pcaddr = 00000010  instr = 01285025   v0 = 0   or    $10, $9, $8
#    75  pc =  5  pcaddr = 00000014  instr = 00094842   v0 = 0   srl   $9, $0, $9
#    76  pc =  6  pcaddr = 00000018  instr = 008a582b   v0 = 0   sltu  $11, $4, $10
#    77  pc =  7  pcaddr = 0000001c  instr = 15600002   v0 = 0   bne   $11, $0, 3
#    78  pc = 10  pcaddr = 00000028  instr = 00084082   v0 = 0   srl   $8, $0, $8
#    79  pc = 11  pcaddr = 0000002c  instr = 1500fff8   v0 = 0   bne   $8, $0, -7
#    80  pc =  4  pcaddr = 00000010  instr = 01285025   v0 = 0   or    $10, $9, $8
#    81  pc =  5  pcaddr = 00000014  instr = 00094842   v0 = 0   srl   $9, $0, $9
#    82  pc =  6  pcaddr = 00000018  instr = 008a582b   v0 = 0   sltu  $11, $4, $10
#    83  pc =  7  pcaddr = 0000001c  instr = 15600002   v0 = 0   bne   $11, $0, 3
#    84  pc =  8  pcaddr = 00000020  instr = 008a2023   v0 = 0   subu  $4, $4, $10
#    85  pc =  9  pcaddr = 00000024  instr = 01284825   v0 = 0   or    $9, $9, $8
#    86  pc = 10  pcaddr = 00000028  instr = 00084082   v0 = 0   srl   $8, $0, $8
#    87  pc = 11  pcaddr = 0000002c  instr = 1500fff8   v0 = 0   bne   $8, $0, -7
#    88  pc =  4  pcaddr = 00000010  instr = 01285025   v0 = 0   or    $10, $9, $8
#    89  pc =  5  pcaddr = 00000014  instr = 00094842   v0 = 0   srl   $9, $0, $9
#    90  pc =  6  pcaddr = 00000018  instr = 008a582b   v0 = 0   sltu  $11, $4, $10
#    91  pc =  7  pcaddr = 0000001c  instr = 15600002   v0 = 0   bne   $11, $0, 3
#    92  pc = 10  pcaddr = 00000028  instr = 00084082   v0 = 0   srl   $8, $0, $8
#    93  pc = 11  pcaddr = 0000002c  instr = 1500fff8   v0 = 0   bne   $8, $0, -7
#    94  pc =  4  pcaddr = 00000010  instr = 01285025   v0 = 0   or    $10, $9, $8
#    95  pc =  5  pcaddr = 00000014  instr = 00094842   v0 = 0   srl   $9, $0, $9
#    96  pc =  6  pcaddr = 00000018  instr = 008a582b   v0 = 0   sltu  $11, $4, $10
#    97  pc =  7  pcaddr = 0000001c  instr = 15600002   v0 = 0   bne   $11, $0, 3
#    98  pc = 10  pcaddr = 00000028  instr = 00084082   v0 = 0   srl   $8, $0, $8
#    99  pc = 11  pcaddr = 0000002c  instr = 1500fff8   v0 = 0   bne   $8, $0, -7
#   100  pc =  4  pcaddr = 00000010  instr = 01285025   v0 = 0   or    $10, $9, $8
#   101  pc =  5  pcaddr = 00000014  instr = 00094842   v0 = 0   srl   $9, $0, $9
#   102  pc =  6  pcaddr = 00000018  instr = 008a582b   v0 = 0   sltu  $11, $4, $10
#   103  pc =  7  pcaddr = 0000001c  instr = 15600002   v0 = 0   bne   $11, $0, 3
#   104  pc =  8  pcaddr = 00000020  instr = 008a2023   v0 = 0   subu  $4, $4, $10
#   105  pc =  9  pcaddr = 00000024  instr = 01284825   v0 = 0   or    $9, $9, $8
#   106  pc = 10  pcaddr = 00000028  instr = 00084082   v0 = 0   srl   $8, $0, $8
#   107  pc = 11  pcaddr = 0000002c  instr = 1500fff8   v0 = 0   bne   $8, $0, -7
#   108  pc = 12  pcaddr = 00000030  instr = 00091021   v0 = 0   addu  $2, $0, $9
#   109  pc = 13  pcaddr = 00000034  instr = 1000ffff   v0 = 9   beq   $0, $0, 0
#   110  pc = 13  pcaddr = 00000034  instr = 1000ffff   v0 = 9   beq   $0, $0, 0
#   111  pc = 13  pcaddr = 00000034  instr = 1000ffff   v0 = 9   beq   $0, $0, 0
#   112  pc = 13  pcaddr = 00000034  instr = 1000ffff   v0 = 9   beq   $0, $0, 0
#   113  pc = 13  pcaddr = 00000034  instr = 1000ffff   v0 = 9   beq   $0, $0, 0
#   114  pc = 13  pcaddr = 00000034  instr = 1000ffff   v0 = 9   beq   $0, $0, 0
#   115  pc = 13  pcaddr = 00000034  instr = 1000ffff   v0 = 9   beq   $0, $0, 0
#   116  pc = 13  pcaddr = 00000034  instr = 1000ffff   v0 = 9   beq   $0, $0, 0
#   117  pc = 13  pcaddr = 00000034  instr = 1000ffff   v0 = 9   beq   $0, $0, 0
#   118  pc = 13  pcaddr = 00000034  instr = 1000ffff   v0 = 9   beq   $0, $0, 0
#   119  pc = 13  pcaddr = 00000034  instr = 1000ffff   v0 = 9   beq   $0, $0, 0
#   120  pc = 13  pcaddr = 00000034  instr = 1000ffff   v0 = 9   beq   $0, $0, 0
# Timeout
# ** Note: $stop    : ../../../testbench/testbench.v(133)
#    Time: 2410 ns  Iteration: 1  Instance: /sm_testbench
# Break in Module sm_testbench at ../../../testbench/testbench.v line 133
# 0 ps
# 2530500 ps
# End time: 21:42:07 on Sep 30,2018, Elapsed time: 0:18:39
# Errors: 0, Warnings: 0
